…
      rvest::read_html(x) %>%             # llamo a la función read_html() para obtener el contenido de la página
        
        rvest::html_elements(".ue-c-cover-content__headline-group") %>%  # llamo a la función html_elements() y especifico las etiquetas de los títulos 
        
        rvest::html_text() %>%            # llamo a la función html_text() para especificar el formato 'chr' del título.
        
        tibble::as_tibble() %>%           # llamo a la función as_tibble() para transforma el vector en tabla 
        
        dplyr::rename(titulo = value)     # llamo a la función rename() para renombrar la variable 'value'
      
    }                                     # cierro la función para raspado web
    # Usamos la función para scrapear el diario El Mundo ----------------------------------------------
    (El_Mundo <- scraping_EM("https://www.elmundo.es/espana.html"))

    ## # A tibble: 67 x 1
    ##    titulo                                                                       
    ##    <chr>                                                                        
    ##  1 "Ceuta. Abascal, al PP: \"Se ríen de nosotros. Votaremos lo que queramos en ~
    ##  2 "Entrevista. Juan Jesús Vivas: \"Marruecos se frota las manos con las tesis ~
    ##  3 "Política. Igualdad anima a los comercios a tener un espacio seguro para ate~
    ##  4 "Interior. Marlaska faculta a los técnicos expertos en delitos de odio para ~
    ##  5 "UE. El PP recurre al TC el veto del Gobierno a que una autoridad independie~
    ##  6 "Cataluña. \"Fascista, colono\", los insultos a un profesor en el Claustro d~
    ##  7 "'Procés'. El Tribunal de Cuentas fuerza a Sánchez a decir si acepta avalar ~
    ##  8 "Tribunales. El juez manda a juicio al empresario López Madrid por contratar~
    ##  9 "Justicia. Indemnizan a una limpiadora por una plaga de chinches en su casa ~
    ## 10 "País Vasco. Continúa en estado grave el joven que recibió una paliza en Amo~
    ## # ... with 57 more rows
…
        rvest::html_elements(tag_link) %>%            # llamo a la función html_elements() y especifico las etiquetas de los títulos 
        
        rvest::html_attr("href") %>%                  # llamo a la función html_attr() para especificar el formato 'chr' del título.
        
        rvest::url_absolute(pag_web) %>%              # llamo a la función url::absolute() para completar las URLs relativas
        
        tibble::as_tibble() %>%                       # llamo a la función as_tibble() para transforma el vector en tabla
        
        dplyr::rename(link = value)                   # llamo a la función rename() para renombrar la variable 'value'
      
    }                                                 # cierro la función para raspado web
    # Usamos la función para scrapear el diario El Mundo ----------------------------------------------
    (links_EM <- scraping_links(pag_web = "https://www.elmundo.es/economia.html", tag_link = "a.ue-c-cover-content__link"))

    ## # A tibble: 66 x 1
    ##    link                                                                         
    ##    <chr>                                                                        
    ##  1 https://www.elmundo.es/economia/macroeconomia/2021/07/28/61018acbfc6c8368198~
    ##  2 https://www.elmundo.es/economia/2021/07/28/61015632e4d4d83d3b8b4621.html     
    ##  3 https://www.elmundo.es/economia/2021/07/28/610113bc21efa0be4a8b4600.html     
    ##  4 https://www.elmundo.es/economia/actualidad-economica/2021/07/28/61001bf221ef~
    ##  5 https://www.elmundo.es/economia/empresas/2021/07/28/610140befdddff98838b4653~
    ##  6 https://www.elmundo.es/economia/2021/07/27/61000ea3e4d4d8980a8b461c.html     
    ##  7 https://www.elmundo.es/economia/empresas/2021/07/28/6100f077e4d4d8db038b4628~
    ##  8 https://www.elmundo.es/economia/empresas/2021/07/28/6100f28b21efa03a5f8b4617~
    ##  9 https://www.elmundo.es/economia/empresas/2021/07/26/60feea9bfdddff55a08b463b~
    ## 10 https://www.elmundo.es/economia/actualidad-economica/2021/07/28/60fffd65e4d4~
    ## # ... with 56 more rows

    # Usamos la función para scrapear el diario El País -----------------------------------------------
    (links_EP <- scraping_links(pag_web = "https://elpais.com/espana/", tag_link = "h2 a")) 

    ## # A tibble: 27 x 1
    ##    link                                                                         
    ##    <chr>                                                                        
    ##  1 https://elpais.com/espana/catalunya/2021-07-28/la-fiscalia-investiga-el-aval~
    ##  2 https://elpais.com/espana/2021-07-28/el-pp-desprecia-la-conferencia-de-presi~
    ##  3 https://elpais.com/espana/2021-07-28/los-delitos-de-odio-repuntan-hasta-alca~
    ##  4 https://elpais.com/espana/2021-07-28/el-parlament-respalda-a-torrent-y-tilda~
    ##  5 https://elpais.com/espana/2021-07-28/la-abogacia-del-estado-defendio-ante-el~
    ##  6 https://elpais.com/espana/2021-07-28/el-matrimonio-ruso-kokorev-vendio-679-m~
    ##  7 https://elpais.com/espana/2021-07-28/el-97-de-los-menores-migrantes-acogidos~
    ##  8 https://elpais.com/espana/2021-07-28/urkullu-ira-a-la-conferencia-de-preside~
    ##  9 https://elpais.com/espana/2021-07-28/jubilado-por-incapacidad-permanente-el-~
    ## 10 https://elpais.com/espana/2021-07-28/el-juez-deja-a-un-paso-del-banquillo-a-~
    ## # ... with 17 more rows
…
        rvest::html_elements(tag_link) %>%            # llamo a la función html_elements() y especifico las etiquetas de los títulos 
        
        rvest::html_attr("href") %>%                  # llamo a la función html_attr() para especificar el formato 'chr' del título.
        
        rvest::url_absolute(pag_web) %>%              # llamo a la función url::absolute() para completar las URLs relativas
        
        tibble::as_tibble() %>%                       # llamo a la función as_tibble() para transforma el vector en tabla
        
        dplyr::rename(link = value)                   # llamo a la función rename() para renombrar la variable 'value'
      
    }                                                 # cierro la función para raspado web
    # Usamos la función para scrapear los links a las notas de El País -------------------------------
    (links_EP  <- scraping_links(pag_web = "https://elpais.com/espana/", tag_link = "h2 a")) 

    ## # A tibble: 27 x 1
    ##    link                                                                         
    ##    <chr>                                                                        
    ##  1 https://elpais.com/espana/catalunya/2021-07-28/la-fiscalia-investiga-el-aval~
    ##  2 https://elpais.com/espana/2021-07-28/el-pp-desprecia-la-conferencia-de-presi~
    ##  3 https://elpais.com/espana/2021-07-28/los-delitos-de-odio-repuntan-hasta-alca~
    ##  4 https://elpais.com/espana/2021-07-28/el-parlament-respalda-a-torrent-y-tilda~
    ##  5 https://elpais.com/espana/2021-07-28/la-abogacia-del-estado-defendio-ante-el~
    ##  6 https://elpais.com/espana/2021-07-28/el-matrimonio-ruso-kokorev-vendio-679-m~
    ##  7 https://elpais.com/espana/2021-07-28/el-97-de-los-menores-migrantes-acogidos~
    ##  8 https://elpais.com/espana/2021-07-28/urkullu-ira-a-la-conferencia-de-preside~
    ##  9 https://elpais.com/espana/2021-07-28/jubilado-por-incapacidad-permanente-el-~
    ## 10 https://elpais.com/espana/2021-07-28/el-juez-deja-a-un-paso-del-banquillo-a-~
    ## # ... with 17 more rows
…
    # Usamos la función para scrapear los links a las notas de La Nación -------------------------------
    (links_LN <- scraping_links(pag_web = "https://www.lanacion.com.ar/politica", tag_link = "h2 a"))

    ## # A tibble: 30 x 1
    ##    link                                                                         
    ##    <chr>                                                                        
    ##  1 https://www.lanacion.com.ar/politica/denuncian-penalmente-a-alberto-fernande~
    ##  2 https://www.lanacion.com.ar/politica/elisa-carrio-redoblo-el-ataque-contra-f~
    ##  3 https://www.lanacion.com.ar/politica/tras-la-escalada-entre-facundo-manes-y-~
    ##  4 https://www.lanacion.com.ar/politica/sergio-palazzo-pide-debatir-la-reduccio~
    ##  5 https://www.lanacion.com.ar/politica/gildo-insfran-de-las-medidas-sanitarias~
    ##  6 https://www.lanacion.com.ar/politica/alberto-fernandez-aprovecha-su-visita-a~
    ##  7 https://www.lanacion.com.ar/politica/hay-casi-7-millones-de-dosis-distribuid~
    ##  8 https://www.lanacion.com.ar/politica/un-gobierno-que-no-dice-la-verdad-nid27~
    ##  9 https://www.lanacion.com.ar/politica/duro-cruce-en-el-senado-por-la-candidat~
    ## 10 https://www.lanacion.com.ar/politica/nadie-puede-creer-que-esta-decision-fue~
    ## # ... with 20 more rows

    # Usamos la función para scrapear las notas de La Nación. Replicamos todo en una sola línea de código.
    (la_nacion_ar <- purrr::pmap_dfr(list(links_LN$link[1:10],".com-date.--twoxs",".com-title.--threexl",".col-12 p"), scraping_notas)) # "section.fecha","h1.titulo","#cuerpo p" scraping_notas))

    ## # A tibble: 105 x 3
    ##    fecha       titulo                           nota                            
    ##    <chr>       <chr>                            <chr>                           
    ##  1 28 de juli~ Denuncian penalmente a Alberto ~ "Yamil Santoro, precandidato a ~
    ##  2 28 de juli~ Denuncian penalmente a Alberto ~ "La denuncia que quedo radicada~
    ##  3 28 de juli~ Denuncian penalmente a Alberto ~ "Acaba de ingresar una denuncia~
    ##  4 28 de juli~ Denuncian penalmente a Alberto ~ "En la presentación judicial, a~
    ##  5 28 de juli~ Denuncian penalmente a Alberto ~ "Pacchi es una modelo que tiene~
    ##  6 28 de juli~ Denuncian penalmente a Alberto ~ ""                              
    ##  7 28 de juli~ Elisa Carrió redobló el ataque ~ "Elisa Carrió quedó dolida con ~
    ##  8 28 de juli~ Elisa Carrió redobló el ataque ~ "“Estoy harta de las mentiras”,~
    ##  9 28 de juli~ Elisa Carrió redobló el ataque ~ "“Cuando yo miento descaradamen~
    ## 10 28 de juli~ Elisa Carrió redobló el ataque ~ "La exdiputada nacional advirti~
    ## # ... with 95 more rows
…
    # Detectamos que hay algunas filas que son recurrente y debemos borrar:
       # "Celdas vacías"
    # Con el uso del paquete stringr vamos a remover estos fragmentos de información no útil.
    (la_nacion_ar_limpia <- la_nacion_ar %>%                                  # creamos un nuevo objeto clase tibble.
        
        dplyr::mutate(nota = stringr::str_trim(nota)) %>%                     # con las funciones mutate() y str_trim() quitamos los espacios en blanco sobrantes.
        
        dplyr::filter(nota != ""))                                            # con la función filter() descartamos las celdas vacías.

    ## # A tibble: 95 x 3
    ##    fecha       titulo                           nota                            
    ##    <chr>       <chr>                            <chr>                           
    ##  1 28 de juli~ Denuncian penalmente a Alberto ~ Yamil Santoro, precandidato a l~
    ##  2 28 de juli~ Denuncian penalmente a Alberto ~ La denuncia que quedo radicada ~
    ##  3 28 de juli~ Denuncian penalmente a Alberto ~ Acaba de ingresar una denuncia ~
    ##  4 28 de juli~ Denuncian penalmente a Alberto ~ En la presentación judicial, a ~
    ##  5 28 de juli~ Denuncian penalmente a Alberto ~ Pacchi es una modelo que tiene ~
    ##  6 28 de juli~ Elisa Carrió redobló el ataque ~ Elisa Carrió quedó dolida con F~
    ##  7 28 de juli~ Elisa Carrió redobló el ataque ~ “Estoy harta de las mentiras”, ~
    ##  8 28 de juli~ Elisa Carrió redobló el ataque ~ “Cuando yo miento descaradament~
    ##  9 28 de juli~ Elisa Carrió redobló el ataque ~ La exdiputada nacional advirtió~
    ## 10 28 de juli~ Elisa Carrió redobló el ataque ~ A lo largo de la entrevista, Ca~
    ## # ... with 85 more rows
…
      nota = rvest::html_elements(                  # declaro la variable nota y llamo a la función html_elements(). 
        
        rvest::read_html(pag_web), tag_nota) %>%    # llamo a la función read_html(pag_web) y especifico la(s) etiqueta(s) de la nota.  
        
        rvest::html_text()                          # llamo a la función html_text() para especificar el formato 'chr' de la nota.
      
      )                                             # cierro la función tibble().
      
    }                                               # cierro la función para raspado web.
    # Usamos la función pmap_dfr() para emparejar los links y la función de web scraping y 
    # creamos el objeto la_nacion_politica con 20 notas completas
    (la_nacion_politica <- purrr::pmap_dfr(list(ln_sec_pol$link[1:20],".com-date.--twoxs",".com-title.--threexl",".col-12 p"), scraping_notas))

    ## # A tibble: 236 x 3
    ##    fecha       titulo                           nota                            
    ##    <chr>       <chr>                            <chr>                           
    ##  1 28 de juli~ Denuncian penalmente a Alberto ~ "Yamil Santoro, precandidato a ~
    ##  2 28 de juli~ Denuncian penalmente a Alberto ~ "La denuncia que quedo radicada~
    ##  3 28 de juli~ Denuncian penalmente a Alberto ~ "Acaba de ingresar una denuncia~
    ##  4 28 de juli~ Denuncian penalmente a Alberto ~ "En la presentación judicial, a~
    ##  5 28 de juli~ Denuncian penalmente a Alberto ~ "Pacchi es una modelo que tiene~
    ##  6 28 de juli~ Denuncian penalmente a Alberto ~ ""                              
    ##  7 28 de juli~ Elisa Carrió redobló el ataque ~ "Elisa Carrió quedó dolida con ~
    ##  8 28 de juli~ Elisa Carrió redobló el ataque ~ "“Estoy harta de las mentiras”,~
    ##  9 28 de juli~ Elisa Carrió redobló el ataque ~ "“Cuando yo miento descaradamen~
    ## 10 28 de juli~ Elisa Carrió redobló el ataque ~ "La exdiputada nacional advirti~
    ## # ... with 226 more rows
…
    ## [[1]]
    ## # A tibble: 6 x 6
    ##   Continente `Densidad(hab./~ `Superficie(km²~ `Población(2020~ `País más pobla~
    ##   <chr>      <chr>            <chr>            <chr>            <chr>           
    ## 1 Asia       106,8            44.010.000       4.701.010.000    China (1.440.00~
    ## 2 África     43,4             30.370.000       1.320.000.000    Nigeria (209.20~
    ## 3 América    25,3             43.316.000       1.098.064.000    Estados Unidos ~
    ## 4 Europa     78,6             10.180.000       801.000.000      Rusia (112.000.~
    ## 5 Oceanía    4,46             9.008.500        40.201.000       Australia (27.2~
    ## 6 Antártida  0,0003(varía)    13.720.000       4.490(no perman~ N.D.[nota 1]<U+200B>    
    ## # ... with 1 more variable: Ciudad más poblada(2020) <chr>
    ## 
    ## [[2]]
    ## # A tibble: 29 x 9
    ##    Año     Total   África   Asia    Europa   América  Oceanía `Crecimientoentre~
    ##    <chr>   <chr>   <chr>    <chr>   <chr>    <chr>    <chr>   <chr>             
    ##  1 10000 ~ 1 000 ~ ""       ""      ""       ""       ""      ""                
    ##  2 8000 a~ 8 000 ~ ""       ""      ""       ""       ""      ""                
    ##  3 1000 a~ 50 000~ ""       ""      ""       ""       ""      ""                
    ##  4 500 a.~ 100 00~ ""       ""      ""       ""       ""      ""                
    ##  5 1 d.C.  200 00~ ""       ""      ""       ""       ""      ""                
    ##  6 1000    310 00~ ""       ""      ""       ""       ""      ""                
    ##  7 1750    791 00~ "106 00~ "502 0~ "163 00~ "18 000~ "2 000~ ""                
    ##  8 1800    978 00~ "107 00~ "635 0~ "203 00~ "31 000~ "2 000~ "23,64%"          
    ##  9 1850    1 262 ~ "111 00~ "809 0~ "276 00~ "64 000~ "2 000~ "29,04%"          
    ## 10 1900    1 650 ~ "133 00~ "947 0~ "408 00~ "156 00~ "6 000~ "30,74%"          
    ## # ... with 19 more rows, and 1 more variable: Crecimientoanual medio (%) <chr>
    ## 
    ## [[3]]
…
    ## [[1]]
    ## # A tibble: 6 x 6
    ##   Continente `Densidad(hab./~ `Superficie(km²~ `Población(2020~ `País más pobla~
    ##   <chr>      <chr>            <chr>            <chr>            <chr>           
    ## 1 Asia       106,8            44.010.000       4.701.010.000    China (1.440.00~
    ## 2 África     43,4             30.370.000       1.320.000.000    Nigeria (209.20~
    ## 3 América    25,3             43.316.000       1.098.064.000    Estados Unidos ~
    ## 4 Europa     78,6             10.180.000       801.000.000      Rusia (112.000.~
    ## 5 Oceanía    4,46             9.008.500        40.201.000       Australia (27.2~
    ## 6 Antártida  0,0003(varía)    13.720.000       4.490(no perman~ N.D.[nota 1]<U+200B>    
    ## # ... with 1 more variable: Ciudad más poblada(2020) <chr>
    ## 
    ## [[2]]
    ## # A tibble: 29 x 9
    ##    Año     Total   África   Asia    Europa   América  Oceanía `Crecimientoentre~
    ##    <chr>   <chr>   <chr>    <chr>   <chr>    <chr>    <chr>   <chr>             
    ##  1 10000 ~ 1 000 ~ ""       ""      ""       ""       ""      ""                
    ##  2 8000 a~ 8 000 ~ ""       ""      ""       ""       ""      ""                
    ##  3 1000 a~ 50 000~ ""       ""      ""       ""       ""      ""                
    ##  4 500 a.~ 100 00~ ""       ""      ""       ""       ""      ""                
    ##  5 1 d.C.  200 00~ ""       ""      ""       ""       ""      ""                
    ##  6 1000    310 00~ ""       ""      ""       ""       ""      ""                
    ##  7 1750    791 00~ "106 00~ "502 0~ "163 00~ "18 000~ "2 000~ ""                
    ##  8 1800    978 00~ "107 00~ "635 0~ "203 00~ "31 000~ "2 000~ "23,64%"          
    ##  9 1850    1 262 ~ "111 00~ "809 0~ "276 00~ "64 000~ "2 000~ "29,04%"          
    ## 10 1900    1 650 ~ "133 00~ "947 0~ "408 00~ "156 00~ "6 000~ "30,74%"          
    ## # ... with 19 more rows, and 1 more variable: Crecimientoanual medio (%) <chr>
…
    (pob__mun__tabla__2 <- rvest::read_html(url_wiki) %>%          # creamos un objeto y llamamos a la función read_html() para leer la pág. web.
        
      rvest::html_table() %>% .[[2]])                              # llamamos a la función html_table() e indicamos con qué tabla queremos quedarnos.

    ## # A tibble: 29 x 9
    ##    Año     Total   África   Asia    Europa   América  Oceanía `Crecimientoentre~
    ##    <chr>   <chr>   <chr>    <chr>   <chr>    <chr>    <chr>   <chr>             
    ##  1 10000 ~ 1 000 ~ ""       ""      ""       ""       ""      ""                
    ##  2 8000 a~ 8 000 ~ ""       ""      ""       ""       ""      ""                
    ##  3 1000 a~ 50 000~ ""       ""      ""       ""       ""      ""                
    ##  4 500 a.~ 100 00~ ""       ""      ""       ""       ""      ""                
    ##  5 1 d.C.  200 00~ ""       ""      ""       ""       ""      ""                
    ##  6 1000    310 00~ ""       ""      ""       ""       ""      ""                
    ##  7 1750    791 00~ "106 00~ "502 0~ "163 00~ "18 000~ "2 000~ ""                
    ##  8 1800    978 00~ "107 00~ "635 0~ "203 00~ "31 000~ "2 000~ "23,64%"          
    ##  9 1850    1 262 ~ "111 00~ "809 0~ "276 00~ "64 000~ "2 000~ "29,04%"          
    ## 10 1900    1 650 ~ "133 00~ "947 0~ "408 00~ "156 00~ "6 000~ "30,74%"          
    ## # ... with 19 more rows, and 1 more variable: Crecimientoanual medio (%) <chr>
…
