…
La tercera acción que vamos a realizar es la tokenización, también como
parte de la normalización del contenido el texto. Tokenizar es separar
el texto en sus palabras constitutivas, a las cuales se las llama
tokens. Aquí la tokenización la vamos a realizar con el paquete
tidytext.

    require(tidyverse)
    require(tidytext)
    # cargamos la base
    Tabla <- readRDS('./Tabla.rds')
    # tokenizamos
    (Tabla <- Tabla %>% tidytext::unnest_tokens(palabras,titulo_limpio, drop = FALSE) %>% select(id,palabras))

    ## # A tibble: 21 x 2
    ##       id palabras    
    ##    <int> <chr>       
    ##  1     1 el          
    ##  2     1 clima       
    ##  3     1 en          
    ##  4     1 mar         
    ##  5     1 del         
    ##  6     1 plata       
    ##  7     2 los         
    ##  8     2 trabajadores
    ##  9     2 estatales   
    ## 10     2 estan       
    ## # ... with 11 more rows
…
